\relax 
\select@language{english}
\@writefile{toc}{\select@language{english}}
\@writefile{lof}{\select@language{english}}
\@writefile{lot}{\select@language{english}}
\@writefile{lof}{\contentsline {figure}{\numberline {1}{\ignorespaces Enlarged Map of Photograph}}{1}}
\newlabel{fig:contour1}{{1}{1}}
\@writefile{toc}{\contentsline {section}{\numberline {1}For TAs Only}{1}}
\@writefile{lof}{\contentsline {figure}{\numberline {2}{\ignorespaces Map with 2 Contour Regions}}{2}}
\newlabel{fig:contour2}{{2}{2}}
\@writefile{lof}{\contentsline {figure}{\numberline {3}{\ignorespaces Map with 5 Contour Regions}}{2}}
\newlabel{fig:contour5}{{3}{2}}
