270 245
188 216
163 153
35 185
94 74
124 5
37 139
155 252
125 25
155 46
129 75
169 60
11 95
36 25
104 55
42 221
139 251
206 45
194 10
221 32
143 267
134 53
59 121
23 220
35 97
191 227
188 204
40 31
85 174
39 175
191 39
105 240
105 263
177 105
100 46
15 14
35 90
3 36
247 266
245 207
104 222
267 8
253 163
137 220
181 224
118 123
248 107
175 111
129 87
39 254
147 240
122 26
106 122
22 205
133 81
34 165
28 7
110 175
170 90
163 164
111 70
94 53
108 187
268 79
56 35
219 143
250 154
124 254
106 151
182 14
221 13
205 71
142 180
255 200
265 57
73 87
53 101
228 161
63 164
112 46
174 172
180 170
18 266
179 125
252 82
103 57
120 193
208 119
50 234
52 58
93 87
175 138
165 105
235 65
97 222
55 35
13 134
168 33
157 53
35 268
201 57
39 228
217 48
42 186
140 50
103 3
36 215
148 149
143 110
245 131
113 34
261 120
111 240
230 203
83 53
158 253
54 137
217 187
102 39
204 75
265 15
194 254
94 83
168 71
26 139
64 25
3 41
237 224
173 113
63 6
113 71
216 144
254 83
146 269
141 218
121 76
157 168
179 60
260 175
252 174
125 206
61 14
263 148
40 198
154 229
49 60
185 190
7 123
50 16
118 8
76 196
109 261
15 49
84 53
148 196
27 115
93 220
9 104
224 70
150 208
108 176
223 33
227 177
71 154
63 125
152 81
252 85
6 85
93 221
199 193
97 52
189 136
222 158
97 168
94 43
225 103
239 144
222 149
156 3
200 198
156 248
261 269
122 221
23 33
103 211
170 7
47 144
187 40
242 13
139 189
263 110
199 197
115 245
48 247
54 133
265 18
98 92
88 140
184 61
63 3
8 200
257 236
46 193
45 241
228 92
47 207
10 149
161 42
18 192
142 81
185 82
49 116
3 21
227 186
42 248
133 184
42 119
1 212
209 218
90 246
64 6
243 8
149 69
87 25
35 156
129 176
242 8
201 205
85 247
44 121
100 152
29 78
245 61
169 110
2 74
67 171
0 48
259 49
35 176
59 38
159 107
49 90
103 122
29 47
241 37
126 67
