494 293
351 348
362 328
424 31
485 378
425 265
284 435
13 133
36 98
0 268
56 240
283 411
118 202
196 382
291 441
72 404
449 449
69 231
236 65
488 402
202 406
126 493
473 190
181 464
123 317
226 470
27 136
323 152
40 379
105 484
345 493
331 148
116 412
27 394
51 420
7 460
282 86
279 143
42 302
492 17
145 195
138 208
342 166
264 279
183 373
283 459
381 477
179 176
297 164
82 74
250 190
243 165
140 481
125 143
450 469
330 426
263 25
124 250
472 59
378 268
101 163
254 379
146 282
235 236
390 480
168 414
322 370
311 155
457 324
461 363
394 444
67 46
427 243
157 470
91 263
270 269
453 363
278 410
415 348
124 255
78 301
461 188
124 35
309 260
390 297
185 116
88 366
396 379
51 434
124 19
58 129
366 120
41 243
197 323
183 350
128 179
477 22
61 240
369 457
1 159
199 235
249 292
441 431
358 139
309 487
316 120
285 215
98 0
259 200
97 483
297 180
190 128
22 177
452 198
162 166
133 369
428 109
35 232
422 67
145 35
25 430
442 451
222 151
44 272
306 441
468 198
318 287
416 79
231 288
394 278
455 55
459 273
94 361
485 202
24 79
104 295
118 430
126 452
181 117
450 490
167 325
68 192
341 18
246 20
272 16
44 302
423 413
69 419
143 418
148 230
264 338
85 340
143 298
221 491
13 18
75 58
268 4
365 133
166 261
268 450
416 476
292 356
431 105
188 385
320 10
284 447
219 113
428 266
434 150
338 204
102 146
303 42
169 104
108 446
122 315
408 238
398 288
459 456
222 356
388 420
492 490
419 421
484 377
313 183
120 240
169 317
43 27
213 41
205 71
423 8
412 357
90 409
396 189
276 224
67 144
74 134
476 219
157 148
44 348
234 52
267 469
139 8
292 232
194 167
338 310
214 428
449 127
52 353
380 394
205 36
275 479
291 465
45 333
2 379
60 124
20 345
409 214
420 359
186 234
134 48
315 381
433 281
342 412
38 302
273 105
130 38
203 124
431 394
79 295
206 317
412 190
153 230
197 478
112 250
88 387
85 155
5 474
138 222
400 75
118 340
281 475
339 476
394 200
378 69
91 202
439 253
27 97
452 44
392 258
36 301
395 280
89 314
217 97
271 176
476 180
355 400
399 489
376 373
114 241
6 312
45 122
285 241
340 444
403 305
390 174
102 245
226 214
186 36
232 213
372 330
128 36
147 99
246 95
26 2
142 167
343 478
22 431
226 437
350 401
473 391
196 326
299 75
214 219
81 168
437 114
58 313
431 159
44 226
383 370
139 396
310 283
266 102
222 325
166 107
